feature	metadata	value	coef	stderr	N	N.not.0	pval	qval
TNFSF14	Age_years	Age_years	0.167888145596122	0.0483970297716252	71	71	0.000917971716312672	0.201918471879742
HGF	Age_years	Age_years	0.111820538987493	0.0337627168181252	71	71	0.00149569238429439	0.201918471879742
