feature	metadata	value	coef	stderr	N	N.not.0	pval	qval
Staphylococcus_7	Age_years	Age_years	0.437477380165855	0.143709678381579	77	57	0.00322987228241433	0.146299925335591
Alloiococcus_otitis_157	sIgA_group	1	0.354903321819493	0.113981121934633	77	15	0.00262715358202204	0.146299925335591
Porphyromonas_161	sIgA_group	1	0.257857444125082	0.0859000127037547	77	10	0.00365749813338977	0.146299925335591
Moraxella_1	Age_years	Age_years	-0.347532167411355	0.14182037122349	77	71	0.0166286451902664	0.237428809879918
Haemophilus_4	sIgA_group	1	-0.733308884171079	0.317599864264029	77	33	0.0237428809879918	0.237428809879918
Haemophilus_6	Age_years	Age_years	-0.363552544566746	0.144392955997998	77	38	0.0139719718299127	0.237428809879918
Neisseriaceae_27	sIgA_group	1	0.480473794939857	0.205062487369417	77	35	0.0218162158309275	0.237428809879918
Corynebacterium_78	Age_years	Age_years	0.126156782955562	0.0478594678735888	77	20	0.0102157096842028	0.237428809879918
Porphyromonas_130	sIgA_group	1	0.246014655082693	0.103213801167735	77	9	0.0197131386815001	0.237428809879918
Paracoccus_152	Age_years	Age_years	0.139363146640161	0.0587483198221415	77	16	0.0202831085534337	0.237428809879918
Rothia_mucilaginosa_168	sIgA_group	1	0.199251305978662	0.0854899986717747	77	9	0.0224970258304798	0.237428809879918
Actinobacillus_176	Age_years	Age_years	-0.347532167411355	0.14182037122349	77	71	0.0166286451902664	0.237428809879918
Corynebacterium_113	sIgA_group	1	0.284730157923263	0.129010908625592	77	16	0.0304137665236524	0.28074246021833
Dolosigranulum_137	Age_years	Age_years	-0.0963659021096615	0.045962284130626	77	10	0.0394443450794859	0.338094386395593
Staphylococcus_7	sIgA_group	1	0.509740623106499	0.285570981598886	77	57	0.0783614406494252	0.357360234491109
Moraxella_lincolnii_8	Age_years	Age_years	-0.184054375449784	0.105918470867943	77	12	0.0864240006634038	0.357360234491109
Haemophilus_22	sIgA_group	1	0.389336865242617	0.226223865401047	77	32	0.0894250606467868	0.357360234491109
Corynebacterium_50	sIgA_group	1	0.302718098839841	0.157645563721526	77	22	0.0586808016604081	0.357360234491109
Rothia_mucilaginosa_56	sIgA_group	1	0.299002249393678	0.161669309610336	77	20	0.0683835133868084	0.357360234491109
Streptococcus_59	sIgA_group	1	0.259077271037324	0.15191752963133	77	14	0.0923180605768697	0.357360234491109
Granulicatella_63	sIgA_group	1	0.319527653321004	0.185403736487878	77	22	0.0889895849199306	0.357360234491109
Rothia_mucilaginosa_81	sIgA_group	1	0.260161259401497	0.14852570266535	77	17	0.0839815789905379	0.357360234491109
Paracoccus_86	sIgA_group	1	0.300952580688912	0.173918778149898	77	30	0.0877236285948891	0.357360234491109
Rothia_mucilaginosa_87	Age_years	Age_years	0.125835090745005	0.0630976125698961	77	11	0.0498043966679666	0.357360234491109
Dolosigranulum_93	Age_years	Age_years	0.0929018247566874	0.0525626180724608	77	8	0.0812754154726796	0.357360234491109
Dolosigranulum_96	sIgA_group	1	0.247073705719226	0.126596610741747	77	13	0.0547630524050701	0.357360234491109
Dolosigranulum_119	Age_years	Age_years	0.102153437659012	0.052851915885023	77	8	0.0570845452835034	0.357360234491109
Actinobacillus_122	sIgA_group	1	0.318037945837462	0.179509579573497	77	18	0.0805604259039663	0.357360234491109
Streptococcus_123	sIgA_group	1	0.241851813636063	0.139425391483505	77	22	0.0869695404209345	0.357360234491109
Dolosigranulum_137	sIgA_group	1	0.171821184899451	0.0913334073496346	77	10	0.0638712328571208	0.357360234491109
Leptotrichia_hongkongensis_142	sIgA_group	1	0.228237151690545	0.126438744212039	77	11	0.0751236476782915	0.357360234491109
Neisseriaceae_107	Age_years	Age_years	0.0777293427315745	0.0463923929174576	77	12	0.0980617435006565	0.367731538127462
Neisseriaceae_107	sIgA_group	1	0.153022240373677	0.092188092920106	77	12	0.10116851551091	0.367885510948764
Dolosigranulum_89	sIgA_group	1	0.279717096872695	0.173316707220802	77	28	0.110804039841345	0.391073081792984
Corynebacterium_167	sIgA_group	1	0.196421886028394	0.124099326599247	77	12	0.117736553200104	0.403668182400356
Veillonella_72	sIgA_group	1	0.178747540544036	0.118067938012312	77	8	0.134301218549442	0.44767072849814
Prevotella_melaninogenica_51	sIgA_group	1	0.201494825830632	0.139701947832483	77	22	0.153431556629107	0.493603323259133
Rothia_mucilaginosa_56	Age_years	Age_years	-0.116517748385958	0.0813578619164713	77	20	0.156307719032059	0.493603323259133
Streptococcus_5	Age_years	Age_years	-0.207546324767127	0.153841395921941	77	41	0.181420815913365	0.495026330359476
Streptococcus_20	sIgA_group	1	0.28988642889384	0.208984622921597	77	43	0.169569510612548	0.495026330359476
Dolosigranulum_25	Age_years	Age_years	0.093204048483079	0.0704250498009912	77	16	0.189760093304466	0.495026330359476
Helcococcus_61	sIgA_group	1	0.269263901069767	0.202403780484533	77	26	0.187494792454934	0.495026330359476
Staphylococcus_71	Age_years	Age_years	-0.123005541641313	0.0922185893625933	77	30	0.186344654447	0.495026330359476
Rothia_dentocariosa_118	sIgA_group	1	0.130995403743903	0.0968409508946505	77	8	0.180274770795648	0.495026330359476
Neisseria_meningitidis_125	sIgA_group	1	0.232264586437497	0.166490809274444	77	15	0.167171016512337	0.495026330359476
Neisseria_meningitidis_125	Age_years	Age_years	-0.117109190089992	0.0837842154702059	77	15	0.166365016710885	0.495026330359476
Staphylococcus_71	sIgA_group	1	0.229063299386916	0.183251075240844	77	30	0.215239334271844	0.54954723643875
Haemophilus_65	sIgA_group	1	0.192684973282577	0.159840684686185	77	22	0.231858119328929	0.554040353839391
Dolosigranulum_96	Age_years	Age_years	0.076788369971147	0.0637080074173944	77	13	0.231921019301311	0.554040353839391
Veillonella_massiliensis_115	sIgA_group	1	0.138953701353123	0.116170086385723	77	14	0.235467150381741	0.554040353839391
Lactobacillus_delbrueckii_135	sIgA_group	1	0.171445309108185	0.14317993623165	77	12	0.234967801115876	0.554040353839391
Corynebacterium_97	sIgA_group	1	0.178210951736839	0.158541310308593	77	19	0.264618082036807	0.610657112392631
Streptococcus_10	sIgA_group	1	0.222248326403708	0.207305086529799	77	53	0.287166554695339	0.638147899322975
Porphyromonas_130	Age_years	Age_years	-0.055943047408712	0.0519409293174951	77	9	0.284956053099228	0.638147899322975
Haemophilus_65	Age_years	Age_years	0.0789745043338581	0.0804376315126014	77	22	0.329392390359545	0.718526828531314
Porphyromonas_145	Age_years	Age_years	0.051383339830589	0.0529842278984919	77	9	0.33531251998128	0.718526828531314
Haemophilus_4	Age_years	Age_years	-0.138826394030278	0.159827774138221	77	33	0.387874371078692	0.725248012950783
Neisseria_23	Age_years	Age_years	0.0718681886964358	0.0834096418646068	77	20	0.391675040189485	0.725248012950783
Corynebacterium_50	Age_years	Age_years	-0.0673153935108678	0.0793329670047667	77	22	0.398886407122931	0.725248012950783
Helcococcus_61	Age_years	Age_years	-0.0871664540803837	0.101856925496388	77	26	0.394885603413871	0.725248012950783
Granulicatella_63	Age_years	Age_years	-0.0792402248522712	0.0933018866000914	77	22	0.398459972862436	0.725248012950783
Alloprevotella_90	sIgA_group	1	0.137790218507462	0.146812701390281	77	18	0.351018117960797	0.725248012950783
Alloprevotella_90	Age_years	Age_years	0.0633560557492102	0.0738814776662534	77	18	0.393917338940382	0.725248012950783
Veillonella_massiliensis_115	Age_years	Age_years	0.0526207403841863	0.0584610020898482	77	14	0.37098700462839	0.725248012950783
Bergeyella_128	sIgA_group	1	0.119906694401447	0.126964888461017	77	12	0.348034431560428	0.725248012950783
Lactobacillus_delbrueckii_135	Age_years	Age_years	-0.0631511486391197	0.0720533384426543	77	12	0.383621776748944	0.725248012950783
Veillonella_72	Age_years	Age_years	0.0493968675329709	0.0594160698819119	77	8	0.40843804412168	0.731530825292561
Moraxella_1	sIgA_group	1	0.214678929881486	0.28181666730528	77	71	0.448619509647032	0.740505770192708
Dolosigranulum_pigrum_2	sIgA_group	1	0.190152313816173	0.268232453400407	77	72	0.480608601696626	0.740505770192708
Corynebacterium_3	sIgA_group	1	0.195773566934964	0.279356484532924	77	59	0.485624428425753	0.740505770192708
Streptococcus_59	Age_years	Age_years	0.060330937745035	0.0764504124389917	77	14	0.432544791260729	0.740505770192708
Veillonella_94	sIgA_group	1	0.104640439110879	0.14807199674408	77	17	0.481980818386494	0.740505770192708
Corynebacterium_97	Age_years	Age_years	-0.0612518243858201	0.0797837391848325	77	19	0.445094522053169	0.740505770192708
Staphylococcus_106	sIgA_group	1	0.0552726142128333	0.0754600761707868	77	12	0.466192481508072	0.740505770192708
Fusobacterium_necrophorum_114	sIgA_group	1	0.100090292566981	0.126022488702942	77	8	0.429603769768816	0.740505770192708
Dolosigranulum_119	sIgA_group	1	0.0784109589481483	0.105024057312221	77	8	0.457670556697495	0.740505770192708
Alloiococcus_otitis_157	Age_years	Age_years	0.0400244435843285	0.0573594357629984	77	15	0.487499632043533	0.740505770192708
Actinobacillus_176	sIgA_group	1	0.214678929881486	0.28181666730528	77	71	0.448619509647032	0.740505770192708
Staphylococcus_178	sIgA_group	1	0.190152313816173	0.268232453400407	77	72	0.480608601696626	0.740505770192708
Dolosigranulum_pigrum_2	Age_years	Age_years	0.0898921350579789	0.134984301954807	77	72	0.507516879074004	0.742707627913177
Bergeyella_128	Age_years	Age_years	-0.0434958938834281	0.0638933381267512	77	12	0.498149321596609	0.742707627913177
Staphylococcus_178	Age_years	Age_years	0.0898921350579789	0.134984301954807	77	72	0.507516879074004	0.742707627913177
Neisseria_23	sIgA_group	1	0.10806362870949	0.165746479780171	77	20	0.516433144346817	0.74665032917612
Streptococcus_5	sIgA_group	1	-0.191346015480697	0.305704103848323	77	41	0.53329391180638	0.761848445437685
Moraxella_11	sIgA_group	1	-0.116045807117382	0.190181311556412	77	10	0.543608556337775	0.767447373653329
Moraxella_lincolnii_8	sIgA_group	1	-0.115094338020775	0.210474632160117	77	12	0.586139150726086	0.803289575937801
Streptococcus_10	Age_years	Age_years	0.0555828244323191	0.104323440516475	77	53	0.595773102153869	0.803289575937801
Streptococcus_20	Age_years	Age_years	-0.0564449982056612	0.105168644161972	77	43	0.593078356960896	0.803289575937801
Neisseriaceae_27	Age_years	Age_years	-0.0559666392296334	0.103194883258056	77	35	0.589214365573195	0.803289575937801
Paracoccus_152	sIgA_group	1	0.0557769457931963	0.116741026407061	77	16	0.6342125795668	0.845616772755734
Dolosigranulum_25	sIgA_group	1	-0.0625502641451557	0.139944301784739	77	16	0.656205484750752	0.847504171827285
Dolosigranulum_93	sIgA_group	1	-0.0455727849888001	0.104449182597879	77	8	0.663878267931373	0.847504171827285
Leptotrichia_hongkongensis_142	Age_years	Age_years	0.0279139973588836	0.0636285632522886	77	11	0.662155451840252	0.847504171827285
Fusobacterium_174	sIgA_group	1	0.0396591423116871	0.0872353992351117	77	10	0.650711961371807	0.847504171827285
Haemophilus_12	sIgA_group	1	-0.0678433451531168	0.160083911056015	77	10	0.672942029425346	0.850032037168858
Corynebacterium_113	Age_years	Age_years	0.0249434443195552	0.0649229697026451	77	16	0.701931584618961	0.877414480773701
Roseomonas_49	sIgA_group	1	-0.046363773083451	0.148701241297909	77	22	0.75607581584233	0.932428984296147
Paracoccus_86	Age_years	Age_years	0.0261958143948991	0.0875222388931152	77	30	0.765546613600355	0.932428984296147
Rothia_dentocariosa_118	Age_years	Age_years	0.0143487028127394	0.0487338798547269	77	8	0.769253912044321	0.932428984296147
Haemophilus_12	Age_years	Age_years	-0.0203594877836624	0.0805600318460896	77	10	0.801181873028087	0.945049182400366
Corynebacterium_78	sIgA_group	1	0.0237743959462122	0.0951033735053781	77	20	0.803291805040311	0.945049182400366
Actinobacillus_122	Age_years	Age_years	0.0229308013301376	0.0903357330022934	77	18	0.800323318752562	0.945049182400366
Porphyromonas_161	Age_years	Age_years	-0.01022114275527	0.0432280028226731	77	10	0.813738896624636	0.948045316455887
Roseomonas_49	Age_years	Age_years	0.013309514176424	0.0748318594635089	77	22	0.859319747462648	0.951882745990457
Dolosigranulum_89	Age_years	Age_years	0.0159054863811994	0.0872192549586171	77	28	0.855797229060509	0.951882745990457
Veillonella_94	Age_years	Age_years	0.0127481529825044	0.0745152007751933	77	17	0.864626827607998	0.951882745990457
Staphylococcus_106	Age_years	Age_years	0.00671482792560454	0.0379742480010986	77	12	0.860128272481938	0.951882745990457
Porphyromonas_145	sIgA_group	1	0.0187213251544146	0.105286979559275	77	9	0.859356196696964	0.951882745990457
Fusobacterium_174	Age_years	Age_years	0.00912452261062947	0.0439000177727283	77	10	0.835918767069934	0.951882745990457
Rothia_mucilaginosa_81	Age_years	Age_years	0.0117473569466701	0.0747435220551093	77	17	0.875539784914495	0.955134310815813
Corynebacterium_3	Age_years	Age_years	-0.0101161330911313	0.140582317997648	77	59	0.942828839945907	0.958808989775498
Haemophilus_6	sIgA_group	1	-0.0228632904493101	0.286928748604023	77	38	0.93670462398221	0.958808989775498
Prevotella_melaninogenica_51	Age_years	Age_years	0.00871324597756963	0.0703030884996779	77	22	0.901700154752927	0.958808989775498
Rothia_mucilaginosa_87	sIgA_group	1	0.00935718066474522	0.125383671865771	77	11	0.940711765942994	0.958808989775498
Fusobacterium_necrophorum_114	Age_years	Age_years	0.00844874498467955	0.0634190883784696	77	8	0.894380339443987	0.958808989775498
Streptococcus_123	Age_years	Age_years	0.008211804168777	0.0701639153114794	77	22	0.907147463223532	0.958808989775498
Corynebacterium_167	Age_years	Age_years	-0.00598893465356765	0.0624512834360684	77	12	0.923861047970466	0.958808989775498
Rothia_mucilaginosa_168	Age_years	Age_years	0.00437503048772531	0.0430216688865782	77	9	0.919274894419003	0.958808989775498
Moraxella_11	Age_years	Age_years	0.0048606734426883	0.0957061357037599	77	10	0.959631708473464	0.967695840477443
Haemophilus_22	Age_years	Age_years	0.00397964400140333	0.11384405641287	77	32	0.972208171622074	0.972208171622074
