feature	metadata	value	coef	stderr	N	N.not.0	pval	qval
Neisseriaceae_107	Saliva_IgG	Saliva_IgG	0.186613334531451	0.0458667151579604	77	12	0.000125441544243309	0.00958010366671037
Alloiococcus_otitis_157	Saliva_IgG	Saliva_IgG	0.235911579910938	0.0590031187061546	77	15	0.000159668394445173	0.00958010366671037
Dolosigranulum_96	Saliva_IgG	Saliva_IgG	0.222905859544585	0.0636726357499345	77	13	0.00082378552908381	0.0253707181401705
Porphyromonas_161	Saliva_IgG	Saliva_IgG	0.156045203979228	0.0456041524981352	77	10	0.00105711325584044	0.0253707181401705
Rothia_mucilaginosa_168	Saliva_IgG	Saliva_IgG	0.153978783002382	0.0444053624065041	77	9	0.00091519537523576	0.0253707181401705
Corynebacterium_113	Saliva_IgG	Saliva_IgG	0.208132778832583	0.0675836524553987	77	16	0.00298908074320151	0.0597816148640302
Haemophilus_6	Age_years	Age_years	-0.420918533854863	0.148570226256709	77	38	0.00606095110954749	0.102603995418243
Prevotella_melaninogenica_51	Saliva_IgG	Saliva_IgG	0.200990830883185	0.0720498706076498	77	22	0.00684026636121623	0.102603995418243
Rothia_dentocariosa_118	Saliva_IgG	Saliva_IgG	0.135593817746104	0.0507908537191663	77	8	0.00948838971402022	0.122987971756811
Actinobacillus_122	Saliva_IgG	Saliva_IgG	0.243655262880933	0.0922627337136182	77	18	0.0102489976464009	0.122987971756811
Staphylococcus_7	Age_years	Age_years	0.388670042875744	0.151896516697648	77	57	0.0127347247624663	0.127347247624663
Streptococcus_59	Saliva_IgG	Saliva_IgG	0.206107491543163	0.0804197327943273	77	14	0.0125981843056011	0.127347247624663
Moraxella_1	Age_years	Age_years	-0.327157188236911	0.144844875852429	77	71	0.0271149488935742	0.171252308801521
Haemophilus_65	Saliva_IgG	Saliva_IgG	0.194724262190824	0.0838330303913169	77	22	0.0231916688657355	0.171252308801521
Corynebacterium_78	Age_years	Age_years	0.121286970271737	0.0507305845725942	77	20	0.0195857188979731	0.171252308801521
Dolosigranulum_119	Saliva_IgG	Saliva_IgG	0.126935203205388	0.05536191183924	77	8	0.0249568804695465	0.171252308801521
Dolosigranulum_137	Age_years	Age_years	-0.113391065916308	0.049680366272546	77	10	0.0255982043189639	0.171252308801521
Paracoccus_152	Age_years	Age_years	0.14097111353251	0.062392772834799	77	16	0.0270664119479372	0.171252308801521
Actinobacillus_176	Age_years	Age_years	-0.327157188236911	0.144844875852429	77	71	0.0271149488935742	0.171252308801521
Fusobacterium_necrophorum_114	Saliva_IgG	Saliva_IgG	0.145863176606943	0.0666099816516293	77	8	0.0319721979764418	0.191833187858651
Rothia_mucilaginosa_56	Saliva_IgG	Saliva_IgG	0.182242168213626	0.0845529956821921	77	20	0.0346765964477469	0.198151979701411
Neisseria_23	Saliva_IgG	Saliva_IgG	0.175274684368862	0.0867075785413714	77	20	0.0471718599597379	0.209652710932169
Rothia_mucilaginosa_87	Age_years	Age_years	0.127445600221206	0.0624239548133619	77	11	0.0450720533324644	0.209652710932169
Dolosigranulum_89	Saliva_IgG	Saliva_IgG	0.186670279359648	0.0918930107477629	77	28	0.0461265272453425	0.209652710932169
Alloprevotella_90	Saliva_IgG	Saliva_IgG	0.162775316130256	0.0775830652903686	77	18	0.0396164638526508	0.209652710932169
Corynebacterium_97	Saliva_IgG	Saliva_IgG	0.169052398762884	0.0825196229652561	77	19	0.0443603920966218	0.209652710932169
Porphyromonas_130	Saliva_IgG	Saliva_IgG	0.116511902643847	0.056104699118078	77	9	0.0416119175905214	0.209652710932169
Corynebacterium_50	Saliva_IgG	Saliva_IgG	0.164608581052228	0.0822677983082835	77	22	0.0493984048204365	0.211707449230442
Haemophilus_22	Saliva_IgG	Saliva_IgG	0.233422650582542	0.120683195335255	77	32	0.0572538624633778	0.236912534331219
