	raw	filtered	denoised	merged	nonchim
D348.1	48487	47885	47756	45056	45032
D354.1	69179	65334	65250	64782	61057
D354.2	57684	55246	55172	54534	50915
D354.3	59856	56989	56886	56352	54099
D359.1	64261	63068	62950	61977	55177
D360.1	30809	28446	28412	28364	28364
D362.1	58355	57566	57421	56911	54459
D363.1	67778	66321	66264	66093	65491
D364.1	41968	40195	40075	39643	39621
D364.2	59521	58169	58044	57602	56326
D364.3	45150	43260	43186	42684	41655
D367.1	60720	59730	59666	59257	55544
D368.1	53582	52033	51709	50842	48508
D368.2	54121	51508	51265	50909	50738
D368.3	51616	50827	50740	50454	50405
D369.1	68825	67968	67840	67644	66836
D373.1	52759	52254	52184	51910	50989
D374.1	61040	57074	57008	56848	55532
D374.2	71006	69869	69487	68399	66586
D374.3	35287	34260	34210	33876	33767
D374.4	49145	47958	47804	47401	47317
D375.1	64205	59589	59531	59368	58701
D377.1	56234	55403	55123	53374	45079
D377.2	68798	67017	66881	65550	59982
D377.3	65153	63136	63031	61733	57666
D378.1	56403	55489	55388	55061	54192
D380.2	28757	27060	26945	26556	26548
D380.3	65993	62561	62417	61780	57709
D380.4	72384	71077	70913	69146	65871
D382.1	65090	61366	61275	60999	59283
D386.1	67798	63896	63784	63357	60547
D386.2	67878	64644	64518	64188	60393
D386.3	76172	74715	74578	73906	70797
D394.1	64089	59155	59102	58963	58401
D394.2	61263	56979	56905	56602	55244
D394.3	59988	56637	56422	55726	52029
D398.2	62363	61117	60952	60470	59053
D398.3	51718	50782	50725	50339	47264
D398.4	65115	63446	63288	62608	61580
D422.1	66564	65773	65685	64226	60194
D423.1	75248	74246	74071	73645	70447
D425.1	63136	61932	61809	61435	59873
D425.2	64592	64029	63943	63817	62827
D425.3	59481	58415	58326	58044	55760
D429.2	69641	68919	68832	68556	66187
D429.3	51487	50239	49929	48700	46431
D429.4	54737	53971	53913	53686	53677
D430.1	60265	57257	57115	56347	53382
D431.1	72352	71170	70984	70318	66257
D432.1	58497	55311	55167	54575	51748
D432.2	55858	53462	53381	52956	51043
D432.3	59493	56818	56779	56563	55622
D433.2	57382	53733	53672	53375	52285
D433.3	59219	58565	58469	58229	57688
D433.4	60410	59833	59781	59551	57690
D437.1	56447	53901	53775	53467	53125
D440.1	58304	56617	56522	55576	49385
D441.1	44714	44017	43940	43707	39459
D444.2	72744	71949	71792	71490	69882
D445.1	54833	53949	53860	53626	53500
D446.1	66792	65927	65810	65521	65239
D447.1	59453	58825	58707	58514	57611
D447.2	51809	51019	50972	50756	50751
D447.3	70295	69653	69578	69356	66961
D449.1	58195	55781	55728	54159	53847
D450.1	64796	62126	62065	61807	59520
D451.1	63138	61283	61225	60997	59756
isoblank.14.1	11738	11147	11111	10993	10988
isoblank.14.2	8080	7699	7683	7620	7620
isoblank.14.3	14132	13574	13548	13462	13462
mock.14.1	57089	53793	53632	51964	42317
pcrblank.14.1	4925	4816	4806	4763	4763
D341.1	41959	36936	36527	31313	31095
D347.1	12297	10588	10458	9853	9852
D348.2	48665	45334	45210	38823	37243
D360.2	72545	63757	63593	48884	43752
D376.1	61263	53579	53352	47566	47162
D380.1	76409	64436	64087	57583	49895
D398.1	41064	35413	35077	30921	30777
D421.1	33071	29561	29327	19992	19924
D429.1	91322	82809	82684	59649	59178
D433.1	106097	96646	96536	72066	68235
D439.1	60672	50685	50454	33012	31630
D443.1	97905	88352	88121	67929	62687
D444.3	92913	86106	85907	66036	62776
D448.1	92077	82621	82477	67132	61245
D449.2	59750	54537	54317	52699	52204
D449.3	51297	48839	48678	44520	42504
D451.3	42506	39290	38889	36918	36322
D464.1	72385	66028	65836	47342	40682
D493.1	79542	65368	65087	33350	31213
D494.1	88621	84998	84825	68988	65125
D495.1	74617	69210	69049	55496	50591
D497.1	69616	66245	66083	57657	51302
D499.1	58036	53313	53180	37030	33907
D500.1	59352	56203	56056	49271	45055
D502.1	82864	75876	75569	59754	57399
D506.1	39488	35729	35625	33775	33774
D511.1	65254	61296	61014	51372	47941
D513.1	57934	52221	52024	44825	44072
D514.1	46744	43948	43854	32372	31031
D521.1	48618	46027	45762	41828	40011
D533.1	53117	50119	49939	47386	41898
D533.2	66672	62808	61993	51156	45812
D536.1	64092	58264	58054	41672	37300
D537.1	56087	50650	50445	46388	40301
D538.1	64940	60914	60758	53960	48830
D539.1	63383	59145	58549	48034	45131
D540.1	54455	46801	46656	29041	26612
D541.1	61473	50833	50723	26695	25416
D608.1	48081	42193	42047	23590	20793
D609.1	22242	20171	20141	19112	19105
D610.1	46372	41951	41779	37960	37752
D614.1	47053	44284	43324	38489	37572
D617.3	47445	44613	44441	38879	37111
D618.2	45986	41694	41599	37881	33921
D623.1	43322	38480	37430	33951	32862
D627.1	56821	53117	51944	47374	44673
D629.1	59255	54575	54487	46015	44069
D632.2	41695	37801	37672	30585	28010
isoblank.19.1	6474	5564	5510	5265	5265
isoblank.19.2	13016	11672	11610	11289	11289
mock.19.1	55161	47846	47682	40913	35140
mock.19.2	46486	40198	40006	34250	30353
mock.19.3	52464	45399	45203	35607	31567
mock.19.4	163651	141110	139742	98009	84430
pcrblank.19.1	23	9	1	0	0
pcrblank.19.2	313	242	229	155	155
pcrblank.19.3	1686	1427	1425	1053	1053
pcrblank.19.4	7277	6003	5992	4759	4759
D496.1	48968	48193	48037	47596	46622
D525.1	56204	55790	55725	55575	54205
D611.1	47760	46386	46312	45913	43513
D612.1	46092	44688	44574	44162	44087
D613.1	48940	48001	47963	47866	47768
D615.2	51451	50927	50843	50696	49630
D617.1	54777	52481	52433	52226	51343
D621.1	40249	39040	38986	38742	36861
D633.1	37636	37200	37124	36703	35180
D634.1	48274	46745	46650	46400	44885
D636.1	34199	32990	32928	32589	32506
D637.1	41093	39981	39737	38647	35106
D640.1	46940	45115	45039	44238	40896
D654.1	51994	50445	50347	49629	44789
D656.1	44704	43963	43869	43575	42758
D658.1	36193	35352	35271	35056	34929
D659.1	20170	19770	19732	19639	19628
isoblank.25.1	14185	13884	13872	13820	13820
isoblank.25.2	15948	15635	15585	15509	15509
isoblank.25.3	9830	9672	9654	9630	9630
isoblank.25.4	14488	14276	14257	14215	14215
mock.25.1	49063	47644	47402	45484	33790
mock.25.2	40791	39573	39361	37679	28166
pcrblank.25.1	6142	5817	5804	5784	5784
pcrblank.25.2	8	7	2	2	2
D341.2	38922	31704	31585	31115	30470
D341.3	38585	33624	33538	33137	32283
D347.2	32797	30254	30097	29210	29195
D348.3	51200	49388	49189	48437	47915
D348.4	33417	32510	32390	32094	31518
D360.3	31549	30121	29894	29310	28777
D360.4	32750	32156	32057	31866	30882
D363.2	41637	40725	40634	40452	39903
D363.3	40285	38009	37869	37218	37037
D363.4	41369	37733	37640	37042	34682
D375.2	44124	40962	40867	40373	38191
D381.1	46647	44682	44556	43979	41045
D382.2	36455	30109	29919	29410	28981
D382.3	36794	34330	34181	33531	33332
D399.1	48637	47508	47384	47035	46115
D399.2	43018	41626	41513	41016	39876
D399.3	39843	38994	38817	38481	37534
D421.2	27421	25988	25920	25611	25575
D423.2	49497	44468	44278	43594	40514
D423.3	43308	37588	37379	36644	35651
D423.4	35852	31398	31216	30884	30232
D423.5	46574	40533	40354	39869	39165
D430.2	33280	32117	31995	31562	30738
D430.3	52213	51057	50884	50576	48445
D430.4	33296	32363	32153	31636	31076
D438.1	48606	42175	41895	39502	32418
D439.2	33629	31962	31772	31111	29873
D439.3	36194	34426	34330	34025	33753
D439.4	38294	36392	36299	35522	30855
D440.2	28249	23826	23689	23183	23135
D440.3	26308	21080	20993	20502	20494
D440.4	24436	20886	20729	20169	20089
D443.2	47383	40940	40793	39818	37183
D444.1	46758	45848	45624	45063	43448
D444.4	42507	40096	39841	39211	36834
D448.2	45288	41195	41007	40124	35298
D448.3	31368	30228	30152	29635	26921
D450.2	65393	59924	59733	58786	53032
D451.2	53500	50482	50311	49661	45252
D464.2	31660	29047	28774	27070	23321
D464.3	30618	27567	27391	26597	25634
D497.2	35704	33188	33103	32564	30286
D497.3	29273	27480	27332	26740	26683
D497.4	28798	28125	27987	27567	27228
D512.1	30921	25906	25680	25261	25170
D512.2	37645	29174	29029	28598	28337
D514.2	35770	34798	34668	34228	33223
D514.3	55626	47646	47509	46963	45427
D518.1	38719	37857	37768	37577	37101
D518.2	40800	39471	39385	39186	38326
D518.3	38126	34739	34694	34644	33183
D518.4	39691	38632	38555	38366	38124
D533.3	40856	38824	38689	37800	34019
D533.4	37301	34125	34023	32837	28630
D539.2	41191	36009	35908	35522	32895
D539.3	36197	33314	33077	31965	28999
D539.4	37221	36090	35947	35412	34457
D541.2	34842	33414	33273	32663	30636
D541.3	36138	35053	34892	34513	33631
D541.4	34783	31532	31437	30646	26737
D610.2	36500	34852	34781	34568	33363
D610.3	54985	53255	53089	52439	51140
D610.4	54511	52256	52076	51231	50834
D612.2	51076	46003	45787	45203	41732
D613.2	45706	44009	43687	42835	42656
D614.2	39407	37018	36841	35732	31993
D614.3	42261	40383	40281	39351	33136
D615.1	38555	37529	37484	37340	37276
D615.3	48775	46565	46456	45984	43469
D617.2	61639	51400	51198	50522	49424
D618.1	41828	41167	41112	40954	38593
D618.3	52329	50684	50485	49618	45170
D621.2	37459	32173	32112	32027	32016
D623.2	33053	31340	31159	30590	29068
D623.3	35443	31840	31723	31396	30929
D624.1	48051	46739	46576	46137	43832
D624.2	58648	47921	47848	47564	46998
D627.2	33170	32273	32099	31645	29193
D627.3	36771	33750	33355	31416	29458
D631.1	37863	35571	35400	34780	32764
D631.2	33394	27807	27700	27424	26708
D631.3	41223	37080	36798	35085	29235
D632.1	45216	44328	44227	43325	37286
D632.3	35421	33441	33369	32651	27928
D636.2	41323	36377	36300	35739	34012
D636.3	44400	38440	38325	38011	37665
D636.4	47227	41832	41715	41161	38695
D638.1	41639	36053	35965	35641	34779
D639.1	42110	41093	41024	40821	38130
D639.2	64028	62446	62328	61752	57803
D639.3	58699	54476	54364	53896	48815
D639.4	39188	36694	36552	35813	31919
D640.2	32152	29594	29461	28945	28536
D640.3	39102	37688	37518	36588	33594
D640.4	34742	34092	34015	33704	31697
D657.1	30857	26639	26522	25354	25344
D657.2	32497	30007	29869	29124	29062
D658.2	48032	41713	41669	41274	39690
D658.3	47600	43144	43052	42536	38784
D658.4	48229	46593	46454	45853	42490
D685.1	46023	45101	45005	44748	43594
D685.2	51834	50685	50504	49960	46416
D685.3	51302	50572	50447	49981	45569
D686.1	32919	31872	31742	31471	31418
D686.2	45367	44498	44385	44131	43229
D686.3	32713	30419	30351	30139	30027
D690.1	40211	39417	39296	38240	35460
D692.1	41570	38176	38049	37623	36996
D692.2	34527	29679	29605	29229	28232
D692.3	33621	31517	31438	30903	28880
D692.4	37614	36663	36524	36288	35577
D693.1	47321	45766	45645	45290	43170
D694.1	38164	32614	32364	30452	24794
D695.1	38123	32497	32351	31562	31385
D696.1	53396	43982	43900	43566	42162
D696.2	49621	44054	43970	43285	39236
D696.3	55579	51198	50960	49496	45571
D696.4	49821	45957	45902	45223	40364
D697.1	41037	40129	40049	39781	39326
D698.1	41614	40848	40716	40493	39232
D699.1	30820	28421	28144	26760	26749
D699.2	45897	41503	41341	40574	39455
D699.3	47866	45203	44994	44464	44194
D700.1	21334	19582	19511	18966	18950
D701.1	51811	47581	47507	46845	41422
D701.2	43978	39448	39354	38921	37994
D701.3	39842	35461	35392	35043	32911
D702.1	43142	38078	37983	37668	35191
D706.1	47777	43423	42666	37807	34996
D706.2	40233	38870	38744	38312	37645
D706.3	44240	40206	40059	39230	37046
D708.1	39406	36209	36068	35707	34232
D709.1	40287	39547	39291	38800	38180
D709.2	47722	46944	46721	46437	45261
D709.3	50646	49874	49725	49323	48629
D711.1	42087	36712	36648	36444	35705
D711.2	48866	47316	47213	46624	45365
D719.1	41219	36327	36150	35840	35614
D719.2	48849	47184	47081	46696	44732
D719.3	50977	50121	50000	49699	47119
isoblank.30.1	18120	16963	16846	16349	16348
isoblank.30.10	14779	14087	14020	13750	13750
isoblank.30.2	8410	7579	7534	7039	7033
isoblank.30.3	13157	12004	11849	11119	11119
isoblank.30.4	10614	9937	9866	9723	9723
isoblank.30.5	3761	3364	3337	3284	3284
isoblank.30.6	12193	11499	11444	11167	11158
isoblank.30.7	16055	15220	15147	14643	14638
isoblank.30.8	11375	10684	10668	10613	10613
isoblank.30.9	21367	20271	20252	20207	20207
mock.30.1	45642	40610	40437	38414	29445
mock.30.2	68131	60512	60317	57236	43615
mock.30.3	45327	40560	40421	38653	30637
pcrblank.30.1	353	322	304	238	238
pcrblank.30.2	189	150	143	139	139
pcrblank.30.3	214	178	172	172	172
D498.1	70270	64520	64398	63242	54333
D498.2	58490	52919	52823	51833	51702
D498.3	71127	64544	64433	63317	61932
D540.2	48241	44391	44331	44102	39139
D540.3	42587	38389	38289	37693	37687
D540.4	36957	33539	33429	33101	33069
D654.2	70030	62018	61865	61306	57707
D654.3	85163	75700	75614	74891	70178
D654.4	76648	70451	70387	70254	69625
D694.2	55494	50581	50314	49726	49101
D694.3	60309	54996	54787	54232	53585
D695.2	89905	82332	82170	81773	80796
D695.3	78506	70680	70496	69657	69029
D695.4	71839	65141	65015	64381	64012
D698.2	66922	59118	58923	58409	57390
D698.3	61310	52670	52513	51863	50089
D698.4	52858	45779	45665	45353	43868
D723.1	79172	72402	72223	71549	67541
D723.2	92140	83947	83758	83278	81293
D723.3	83115	74932	74706	73692	72463
D728.1	65199	58847	58742	58011	54617
D728.2	62469	56553	56451	56012	54212
D728.3	55967	49741	49621	49114	47067
D733.1	59677	53306	52846	51220	49399
D733.2	65387	59454	59224	58481	57500
D733.3	48133	42783	42681	41820	41690
D734.1	80323	70592	70446	69255	63928
D734.2	72276	63007	62773	60893	60293
D734.3	87194	75752	75624	74233	67956
D735.1	70228	63141	62990	61906	53045
D735.2	65306	58202	58049	56823	56306
D735.3	94489	86676	86554	85523	74029
D736.1	89158	80962	80698	80047	75036
D736.2	72009	65408	65316	64724	60712
D736.3	76892	69672	69554	68707	65784
D737.1	60327	54047	53958	53533	50991
D737.2	72545	63009	62935	62548	61507
D737.3	74625	65494	65423	64890	62299
D738.1	92084	83985	83867	83362	80761
D738.2	64331	57205	57070	56366	55651
D738.3	92557	84337	84225	83610	79363
D739.1	74600	68140	67793	66816	65265
D739.2	47694	43437	43308	42707	42621
D739.3	56777	51286	51161	50133	50051
D740.1	73070	65844	65709	65199	64016
D740.2	74338	67564	67423	66982	65843
isoblank.33.1	11177	9702	9682	9469	9469
isoblank.33.2	14768	13109	13044	12777	12774
isoblank.33.3	12960	11358	11309	11075	11075
mock.ATCC.33.1	54132	47856	47756	47346	45581
mock.ATCC.33.2	64	42	23	3	3
mock.iso.ZM.33.1	62321	55115	54938	52083	39207
mock.UMCU.33.1	50852	44483	44309	42223	33178
mock.UMCU.33.2	71084	63188	62794	59450	45209
mock.UMCU.33.3	55233	48859	48702	46938	37934
mock.ZM.33.1	46488	41377	41131	38854	28701
mock.ZM.33.2	38	23	8	2	2
mock.ZM.33.3	61975	55272	55070	52362	40552
pcrblank.33.1	146	131	113	107	107
pcrblank.33.2	34	24	13	0	0
pcrblank.33.3	245	213	209	208	208
pcrblank.33.4	11	6	3	0	0
